<svg xmlns="http://www.w3.org/2000/svg" width="35" height="25" viewBox="0 0 35 25">
  <defs>
    <style>
      .cls-1 {
        fill: #1177bf;
        fill-rule: evenodd;
      }
    </style>
  </defs>
  <path id="Forma_1" data-name="Forma 1" class="cls-1" d="M1099.68,630.976l-2.93,2.988a3.214,3.214,0,0,1-4.5,0l-2.93-2.988-10.53,10.73a3.029,3.029,0,0,0,1.29.294h28.84a3.029,3.029,0,0,0,1.29-.294ZM1108.92,617h-28.84a3.029,3.029,0,0,0-1.29.294l11.25,11.467h0.01v0l3.65,3.729a1.231,1.231,0,0,0,1.6,0l3.65-3.728v0h0.01l11.25-11.467A3.029,3.029,0,0,0,1108.92,617Zm-31.59,1.751a3.031,3.031,0,0,0-.33,1.374v18.75a3.031,3.031,0,0,0,.33,1.374l10.54-10.749Zm34.34,0L1101.13,629.5l10.54,10.749a3.031,3.031,0,0,0,.33-1.374v-18.75A3.031,3.031,0,0,0,1111.67,618.751Z" transform="translate(-1077 -617)"/>
</svg>
